Mike Mahoney - From the inbox: How can I get fold assignments from spatialsample?
…
<Analysis/Assess/Total>
<277/405/682>

To get just the analysis data for that fold, use rsample::analysis():

rsample::get_rsplit(my_folds, 1) |>
  rsample::analysis()

Simple feature collection with 277 features and 18 fields
Geometry type: MULTIPOLYGON
Dimension:     XY
Bounding box:  xmin: 755424.9 ymin: 2935616 xmax: 812069.7 ymax: 2970073
Projected CRS: NAD83 / Massachusetts Mainland (ftUS)
# A tibble: 277 × 19
   grid_id land_area canopy_gain canopy_loss canopy_no_change canopy_area_2014
   <chr>       <dbl>       <dbl>       <dbl>            <dbl>            <dbl>
 1 AB-4      795045.      15323.       3126.           53676.           56802.
 2 AO-9      270153        6187.       1184.           26930.           28114.
 3 V-7       107890.        219.       3612.             240.            3852.
 4 X-4       848558.       8275.       1760.            6872.            8632.
 5 AC-4     2069814.      82201.      50944.          240161.          291104.
 6 AC-15    1175032.      24517.      24010.          111148.          135158.
 7 U-14     2690727.      69780.      51404.          263796.          315201.
 8 AQ-15     453368.      13971.       3401.          343677.          347077.
 9 Q-10      156688.       9237.       3094.           57327.           60421.
10 T-10      215340.      13984.       3947.           59539.           63487.
# ℹ 267 more rows
# ℹ 13 more variables: canopy_area_2019 <dbl>, change_canopy_area <dbl>,
#   change_canopy_percentage <dbl>, canopy_percentage_2014 <dbl>,
#   canopy_percentage_2019 <dbl>, change_canopy_absolute <dbl>,
#   mean_temp_morning <dbl>, mean_temp_evening <dbl>, mean_temp <dbl>,
#   mean_heat_index_morning <dbl>, mean_heat_index_evening <dbl>,
#   mean_heat_index <dbl>, geometry <MULTIPOLYGON [US_survey_foot]>

Similarly, to get just the assessment data for that fold, use rsample::assessment():

rsample::get_rsplit(my_folds, 1) |>
  rsample::assessment()

Simple feature collection with 405 features and 18 fields
Geometry type: MULTIPOLYGON
Dimension:     XY
Bounding box:  xmin: 739826.9 ymin: 2908294 xmax: 781347.5 ymax: 2959751
Projected CRS: NAD83 / Massachusetts Mainland (ftUS)
# A tibble: 405 × 19
   grid_id land_area canopy_gain canopy_loss canopy_no_change canopy_area_2014
   <chr>       <dbl>       <dbl>       <dbl>            <dbl>            <dbl>
 1 I-33      265813.       8849.      11795.           78677.           90472.
 2 H-10     2691490.      73098.      80362.          345823.          426185.
 3 Q-22     2648089.     122211.     154236.         1026632.         1180868.
 4 P-18     2690726.     110928.     113146.          915137.         1028283.
 5 J-29     2574479.      38069.      15530.         2388638.         2404168.
 6 G-28     2641525.      87024.      39246.         1202528.         1241774.
 7 M-23     2690727.      87621.     124032.          748742.          872774.
 8 M-9      2690727.      52443.      53467.          304239.          357706.
 9 S-15     2690728.      93787.     162118.          478257.          640375.
10 Q-21     2690727.      54712.     101816.         1359305.         1461121.
# ℹ 395 more rows
# ℹ 13 more variables: canopy_area_2019 <dbl>, change_canopy_area <dbl>,
#   change_canopy_percentage <dbl>, canopy_percentage_2014 <dbl>,
#   canopy_percentage_2019 <dbl>, change_canopy_absolute <dbl>,
#   mean_temp_morning <dbl>, mean_temp_evening <dbl>, mean_temp <dbl>,
#   mean_heat_index_morning <dbl>, mean_heat_index_evening <dbl>,
#   mean_heat_index <dbl>, geometry <MULTIPOLYGON [US_survey_foot]>
…
