Mike Mahoney - rsi is now on CRAN!
…
Note that the inputs to these functions are normal R objects, and the outputs are the file paths your data was saved to. A key difference of rsi from other packages for downloading data from STAC endpoints is that rsi doesn’t introduce a new data model,4 and instead is focused on getting data onto your local filesystem as quickly as possible. Ideally, you’ll be able to let rsi handle all the “cloud-native geospatial” stuff for you, and then use the outputs with whatever tools you’re most comfortable with.5

For more information on the get_stac_data() family of functions, check out the corresponding article on the rsi website!

Calculate spectral indices

Most other functions in rsi also use the approach of accepting normal R objects as function inputs, and returning file paths to raster outputs. For instance, rsi provides a function, calculate_indices(), which can be used to calculate spectral indices from the band values of an input raster.

By default, this function is designed to work with spectral indices from the (awesome) Awesome Spectral Indices project. In fact, the spectral_indices() function in rsi will give you a processed tibble containing the full list of indices from that project:

spectral_indices()

# A tibble: 231 × 9
   application_domain bands     contributor   date_of_addition formula long_name
   <chr>              <list>    <chr>         <chr>            <chr>   <chr>    
 1 vegetation         <chr [2]> https://gith… 2021-11-17       (N - 0… Aerosol …
 2 vegetation         <chr [2]> https://gith… 2021-11-17       (N - 0… Aerosol …
 3 water              <chr [6]> https://gith… 2022-09-22       (B + G… Augmente…
 4 vegetation         <chr [2]> https://gith… 2021-09-20       (1 / G… Anthocya…
 5 vegetation         <chr [3]> https://gith… 2022-04-08       N * ((… Anthocya…
 6 vegetation         <chr [4]> https://gith… 2021-05-11       (N - (… Atmosphe…
 7 vegetation         <chr [4]> https://gith… 2021-05-14       sla * … Adjusted…
 8 vegetation         <chr [2]> https://gith… 2022-04-08       (N * (… Advanced…
 9 water              <chr [4]> https://gith… 2021-09-18       4.0 * … Automate…
10 water              <chr [5]> https://gith… 2021-09-18       B + 2.… Automate…
# ℹ 221 more rows
# ℹ 3 more variables: platforms <list>, reference <chr>, short_name <chr>

The first time you run spectral_indices() will attempt to download the current set of spectral indices from GitHub, and then will store that download in a cache file. Future calls to spectral_indices() will then be a bit faster, as rsi will only try to update its downloaded indices if the cache is more than a day old.

There are also two functions, filter_bands() and filter_platforms(), which make it easy to filter the tibble of indices based on what bands or platforms you have available in your data. For instance, if we wanted to get the full set of indices that we could calculate with our downloaded Landsat data, we could pass the names of those bands to the second argument in filter_bands():

spectral_indices() |> 
  filter_bands(names(terra::rast(landsat)))

# A tibble: 128 × 9
   application_domain bands     contributor   date_of_addition formula long_name
   <chr>              <list>    <chr>         <chr>            <chr>   <chr>    
 1 vegetation         <chr [2]> https://gith… 2021-11-17       (N - 0… Aerosol …
 2 vegetation         <chr [2]> https://gith… 2021-11-17       (N - 0… Aerosol …
 3 water              <chr [6]> https://gith… 2022-09-22       (B + G… Augmente…
 4 vegetation         <chr [2]> https://gith… 2022-04-08       (N * (… Advanced…
 5 water              <chr [4]> https://gith… 2021-09-18       4.0 * … Automate…
 6 water              <chr [5]> https://gith… 2021-09-18       B + 2.… Automate…
 7 burn               <chr [2]> https://gith… 2021-04-07       1.0 / … Burned A…
 8 burn               <chr [2]> https://gith… 2022-04-20       1.0/((… Burned A…
 9 vegetation         <chr [3]> https://gith… 2022-01-17       B / (R… Blue Chr…
10 soil               <chr [4]> https://gith… 2022-04-08       ((S1 +… Bare Soi…
# ℹ 118 more rows
# ℹ 3 more variables: platforms <list>, reference <chr>, short_name <chr>
…
